<?xml version="1.0" encoding="UTF-8" standalone="no"?>
<gpx version="1.1" creator="GPX Editor 1.7.12.1731" xmlns="http://www.topografix.com/GPX/1/1" xmlns:xsi="http://www.w3.org/2001/XMLSchema-instance" xsi:schemaLocation="http://www.topografix.com/GPX/1/1 http://www.topografix.com/GPX/1/1/gpx.xsd">
<metadata>
	<bounds minlat="45.696438" minlon="6.712601" maxlat="46.031944" maxlon="7.108299" />
</metadata>
<wpt.ts lat="45.845864" lon="6.739222">
	<name>Etape 8</name>
	<src>Leaflet</src>
	<fix>2d</fix>
</wpt.ts>

<trk>
	<name>Les Chapieux - col de la Croix-du-Bonhomme - Notre-Dame-de-la-Gorge - Les Contamines-Montjoie</name>
	<trkseg>
		<trkpt lat="45.778166" lon="6.71436">
			<ele>1470</ele>
			<time>2017-02-21T04:12:51Z</time>
		</trkpt>
		<trkpt lat="45.778555" lon="6.714875">
			<ele>1454</ele>
			<time>2017-02-21T04:13:11Z</time>
		</trkpt>
		<trkpt lat="45.779199" lon="6.714961">
			<ele>1443</ele>
			<time>2017-02-21T04:13:31Z</time>
		</trkpt>
		<trkpt lat="45.779692" lon="6.714596">
			<ele>1440</ele>
			<time>2017-02-21T04:13:51Z</time>
		</trkpt>
		<trkpt lat="45.780052" lon="6.714939">
			<ele>1425</ele>
			<time>2017-02-21T04:14:11Z</time>
		</trkpt>
		<trkpt lat="45.781159" lon="6.715218">
			<ele>1406</ele>
			<time>2017-02-21T04:14:31Z</time>
		</trkpt>
		<trkpt lat="45.781623" lon="6.715454">
			<ele>1404</ele>
			<time>2017-02-21T04:14:51Z</time>
		</trkpt>
		<trkpt lat="45.782087" lon="6.715133">
			<ele>1397</ele>
			<time>2017-02-21T04:15:11Z</time>
		</trkpt>
		<trkpt lat="45.7827" lon="6.715068">
			<ele>1392</ele>
			<time>2017-02-21T04:15:31Z</time>
		</trkpt>
		<trkpt lat="45.783179" lon="6.714317">
			<ele>1383</ele>
			<time>2017-02-21T04:15:51Z</time>
		</trkpt>
		<trkpt lat="45.783793" lon="6.713201">
			<ele>1378</ele>
			<time>2017-02-21T04:16:11Z</time>
		</trkpt>
		<trkpt lat="45.784242" lon="6.713094">
			<ele>1369</ele>
			<time>2017-02-21T04:16:31Z</time>
		</trkpt>
		<trkpt lat="45.784601" lon="6.712686">
			<ele>1362</ele>
			<time>2017-02-21T04:16:51Z</time>
		</trkpt>
		<trkpt lat="45.785005" lon="6.712601">
			<ele>1349</ele>
			<time>2017-02-21T04:17:11Z</time>
		</trkpt>
		<trkpt lat="45.785977" lon="6.712879">
			<ele>1335</ele>
			<time>2017-02-21T04:17:31Z</time>
		</trkpt>
		<trkpt lat="45.786621" lon="6.712944">
			<ele>1327</ele>
			<time>2017-02-21T04:17:51Z</time>
		</trkpt>
		<trkpt lat="45.78692" lon="6.71318">
			<ele>1309</ele>
			<time>2017-02-21T04:18:11Z</time>
		</trkpt>
		<trkpt lat="45.787429" lon="6.71333">
			<ele>1295</ele>
			<time>2017-02-21T04:18:31Z</time>
		</trkpt>
		<trkpt lat="45.787803" lon="6.713609">
			<ele>1294</ele>
			<time>2017-02-21T04:18:51Z</time>
		</trkpt>
		<trkpt lat="45.788162" lon="6.713781">
			<ele>1291</ele>
			<time>2017-02-21T04:19:11Z</time>
		</trkpt>
		<trkpt lat="45.788476" lon="6.714103">
			<ele>1283</ele>
			<time>2017-02-21T04:19:31Z</time>
		</trkpt>
		<trkpt lat="45.789314" lon="6.714403">
			<ele>1266</ele>
			<time>2017-02-21T04:19:51Z</time>
		</trkpt>
		<trkpt lat="45.790287" lon="6.715047">
			<ele>1255</ele>
			<time>2017-02-21T04:20:11Z</time>
		</trkpt>
		<trkpt lat="45.791409" lon="6.715841">
			<ele>1232</ele>
			<time>2017-02-21T04:20:31Z</time>
		</trkpt>
		<trkpt lat="45.792755" lon="6.717514">
			<ele>1238</ele>
			<time>2017-02-21T04:20:51Z</time>
		</trkpt>
		<trkpt lat="45.793264" lon="6.718265">
			<ele>1232</ele>
			<time>2017-02-21T04:21:11Z</time>
		</trkpt>
		<trkpt lat="45.793668" lon="6.718587">
			<ele>1234</ele>
			<time>2017-02-21T04:21:31Z</time>
		</trkpt>
		<trkpt lat="45.793877" lon="6.718437">
			<ele>1227</ele>
			<time>2017-02-21T04:21:51Z</time>
		</trkpt>
		<trkpt lat="45.794356" lon="6.718544">
			<ele>1210</ele>
			<time>2017-02-21T04:22:11Z</time>
		</trkpt>
		<trkpt lat="45.7947" lon="6.718888">
			<ele>1211</ele>
			<time>2017-02-21T04:22:31Z</time>
		</trkpt>
		<trkpt lat="45.796002" lon="6.719875">
			<ele>1194</ele>
			<time>2017-02-21T04:22:51Z</time>
		</trkpt>
		<trkpt lat="45.79663" lon="6.720518">
			<ele>1193</ele>
			<time>2017-02-21T04:23:11Z</time>
		</trkpt>
		<trkpt lat="45.797348" lon="6.72099">
			<ele>1190</ele>
			<time>2017-02-21T04:23:31Z</time>
		</trkpt>
		<trkpt lat="45.799398" lon="6.723008">
			<ele>1188</ele>
			<time>2017-02-21T04:23:51Z</time>
		</trkpt>
		<trkpt lat="45.799697" lon="6.723909">
			<ele>1193</ele>
			<time>2017-02-21T04:24:11Z</time>
		</trkpt>
		<trkpt lat="45.800116" lon="6.724188">
			<ele>1189</ele>
			<time>2017-02-21T04:24:31Z</time>
		</trkpt>
		<trkpt lat="45.800535" lon="6.72408">
			<ele>1185</ele>
			<time>2017-02-21T04:24:51Z</time>
		</trkpt>
		<trkpt lat="45.800984" lon="6.724359">
			<ele>1185</ele>
			<time>2017-02-21T04:25:11Z</time>
		</trkpt>
		<trkpt lat="45.801866" lon="6.724595">
			<ele>1181</ele>
			<time>2017-02-21T04:25:31Z</time>
		</trkpt>
		<trkpt lat="45.802375" lon="6.72466">
			<ele>1180</ele>
			<time>2017-02-21T04:25:51Z</time>
		</trkpt>
		<trkpt lat="45.802988" lon="6.72481">
			<ele>1179</ele>
			<time>2017-02-21T04:26:11Z</time>
		</trkpt>
		<trkpt lat="45.803467" lon="6.724488">
			<ele>1178</ele>
			<time>2017-02-21T04:26:31Z</time>
		</trkpt>
		<trkpt lat="45.80411" lon="6.724917">
			<ele>1178</ele>
			<time>2017-02-21T04:26:51Z</time>
		</trkpt>
		<trkpt lat="45.804888" lon="6.724917">
			<ele>1177</ele>
			<time>2017-02-21T04:27:11Z</time>
		</trkpt>
		<trkpt lat="45.805456" lon="6.725089">
			<ele>1175</ele>
			<time>2017-02-21T04:27:31Z</time>
		</trkpt>
		<trkpt lat="45.806997" lon="6.726012">
			<ele>1174</ele>
			<time>2017-02-21T04:27:51Z</time>
		</trkpt>
		<trkpt lat="45.808149" lon="6.72672">
			<ele>1175</ele>
			<time>2017-02-21T04:28:11Z</time>
		</trkpt>
		<trkpt lat="45.808911" lon="6.727449">
			<ele>1171</ele>
			<time>2017-02-21T04:28:31Z</time>
		</trkpt>
		<trkpt lat="45.809315" lon="6.727192">
			<ele>1168</ele>
			<time>2017-02-21T04:28:51Z</time>
		</trkpt>
		<trkpt lat="45.809599" lon="6.727321">
			<ele>1168</ele>
			<time>2017-02-21T04:29:11Z</time>
		</trkpt>
		<trkpt lat="45.810228" lon="6.727321">
			<ele>1166</ele>
			<time>2017-02-21T04:29:31Z</time>
		</trkpt>
		<trkpt lat="45.810631" lon="6.727514">
			<ele>1165</ele>
			<time>2017-02-21T04:29:51Z</time>
		</trkpt>
		<trkpt lat="45.81102" lon="6.727514">
			<ele>1165</ele>
			<time>2017-02-21T04:30:11Z</time>
		</trkpt>
		<trkpt lat="45.81099" lon="6.727127">
			<ele>1164</ele>
			<time>2017-02-21T04:30:31Z</time>
		</trkpt>
		<trkpt lat="45.811604" lon="6.726806">
			<ele>1163</ele>
			<time>2017-02-21T04:30:51Z</time>
		</trkpt>
		<trkpt lat="45.8128" lon="6.726763">
			<ele>1165</ele>
			<time>2017-02-21T04:31:11Z</time>
		</trkpt>
		<trkpt lat="45.813234" lon="6.726827">
			<ele>1165</ele>
			<time>2017-02-21T04:31:31Z</time>
		</trkpt>
		<trkpt lat="45.813982" lon="6.72672">
			<ele>1164</ele>
			<time>2017-02-21T04:31:51Z</time>
		</trkpt>
		<trkpt lat="45.81452" lon="6.72614">
			<ele>1163</ele>
			<time>2017-02-21T04:32:11Z</time>
		</trkpt>
		<trkpt lat="45.815731" lon="6.72614">
			<ele>1161</ele>
			<time>2017-02-21T04:32:31Z</time>
		</trkpt>
		<trkpt lat="45.816374" lon="6.726677">
			<ele>1157</ele>
			<time>2017-02-21T04:32:51Z</time>
		</trkpt>
		<trkpt lat="45.816345" lon="6.726977">
			<ele>1157</ele>
			<time>2017-02-21T04:33:11Z</time>
		</trkpt>
		<trkpt lat="45.816943" lon="6.727599">
			<ele>1157</ele>
			<time>2017-02-21T04:33:31Z</time>
		</trkpt>
		<trkpt lat="45.817362" lon="6.727621">
			<ele>1154</ele>
			<time>2017-02-21T04:33:51Z</time>
		</trkpt>
		<trkpt lat="45.818842" lon="6.72717">
			<ele>1145</ele>
			<time>2017-02-21T04:34:11Z</time>
		</trkpt>
		<trkpt lat="45.819964" lon="6.726999">
			<ele>1145</ele>
			<time>2017-02-21T04:34:31Z</time>
		</trkpt>
		<trkpt lat="45.821025" lon="6.72599">
			<ele>1140</ele>
			<time>2017-02-21T04:34:51Z</time>
		</trkpt>
		<trkpt lat="45.822566" lon="6.725389">
			<ele>1135</ele>
			<time>2017-02-21T04:35:11Z</time>
		</trkpt>
		<trkpt lat="45.823463" lon="6.725733">
			<ele>1134</ele>
			<time>2017-02-21T04:35:31Z</time>
		</trkpt>
		<trkpt lat="45.823837" lon="6.725797">
			<ele>1130</ele>
			<time>2017-02-21T04:35:51Z</time>
		</trkpt>
		<trkpt lat="45.824853" lon="6.726291">
			<ele>1134</ele>
			<time>2017-02-21T04:36:11Z</time>
		</trkpt>
		<trkpt lat="45.825511" lon="6.726097">
			<ele>1126</ele>
			<time>2017-02-21T04:36:31Z</time>
		</trkpt>
		<trkpt lat="45.825736" lon="6.726312">
			<ele>1130</ele>
			<time>2017-02-21T04:36:51Z</time>
		</trkpt>
		<trkpt lat="45.82608" lon="6.726333">
			<ele>1129</ele>
			<time>2017-02-21T04:37:11Z</time>
		</trkpt>
		<trkpt lat="45.826468" lon="6.725926">
			<ele>1124</ele>
			<time>2017-02-21T04:37:31Z</time>
		</trkpt>
		<trkpt lat="45.826992" lon="6.725861">
			<ele>1122</ele>
			<time>2017-02-21T04:37:51Z</time>
		</trkpt>
		<trkpt lat="45.827306" lon="6.725647">
			<ele>1111</ele>
			<time>2017-02-21T04:38:11Z</time>
		</trkpt>
		<trkpt lat="45.827575" lon="6.725325">
			<ele>1103</ele>
			<time>2017-02-21T04:38:31Z</time>
		</trkpt>
		<trkpt lat="45.827844" lon="6.725411">
			<ele>1102</ele>
			<time>2017-02-21T04:38:51Z</time>
		</trkpt>
		<trkpt lat="45.828741" lon="6.726612">
			<ele>1101</ele>
			<time>2017-02-21T04:39:11Z</time>
		</trkpt>
		<trkpt lat="45.82901" lon="6.726677">
			<ele>1106</ele>
			<time>2017-02-21T04:39:31Z</time>
		</trkpt>
		<trkpt lat="45.829414" lon="6.726333">
			<ele>1091</ele>
			<time>2017-02-21T04:39:51Z</time>
		</trkpt>
		<trkpt lat="45.829862" lon="6.726548">
			<ele>1091</ele>
			<time>2017-02-21T04:40:11Z</time>
		</trkpt>
		<trkpt lat="45.831238" lon="6.726183">
			<ele>1079</ele>
			<time>2017-02-21T04:40:31Z</time>
		</trkpt>
		<trkpt lat="45.831597" lon="6.726226">
			<ele>1078</ele>
			<time>2017-02-21T04:40:51Z</time>
		</trkpt>
		<trkpt lat="45.831956" lon="6.726419">
			<ele>1072</ele>
			<time>2017-02-21T04:41:11Z</time>
		</trkpt>
		<trkpt lat="45.832359" lon="6.726441">
			<ele>1068</ele>
			<time>2017-02-21T04:41:31Z</time>
		</trkpt>
		<trkpt lat="45.832957" lon="6.726806">
			<ele>1062</ele>
			<time>2017-02-21T04:41:51Z</time>
		</trkpt>
		<trkpt lat="45.833017" lon="6.726291">
			<ele>1061</ele>
			<time>2017-02-21T04:42:11Z</time>
		</trkpt>
		<trkpt lat="45.833271" lon="6.725883">
			<ele>1060</ele>
			<time>2017-02-21T04:42:31Z</time>
		</trkpt>
		<trkpt lat="45.83375" lon="6.725711">
			<ele>1063</ele>
			<time>2017-02-21T04:42:51Z</time>
		</trkpt>
		<trkpt lat="45.833914" lon="6.725582">
			<ele>1063</ele>
			<time>2017-02-21T04:43:11Z</time>
		</trkpt>
		<trkpt lat="45.834363" lon="6.725411">
			<ele>1062</ele>
			<time>2017-02-21T04:43:31Z</time>
		</trkpt>
		<trkpt lat="45.835095" lon="6.725561">
			<ele>1060</ele>
			<time>2017-02-21T04:43:51Z</time>
		</trkpt>
		<trkpt lat="45.836336" lon="6.725153">
			<ele>1055</ele>
			<time>2017-02-21T04:44:11Z</time>
		</trkpt>
		<trkpt lat="45.837741" lon="6.724767">
			<ele>1062</ele>
			<time>2017-02-21T04:44:31Z</time>
		</trkpt>
		<trkpt lat="45.83798" lon="6.725303">
			<ele>1055</ele>
			<time>2017-02-21T04:44:51Z</time>
		</trkpt>
		<trkpt lat="45.838504" lon="6.725089">
			<ele>1060</ele>
			<time>2017-02-21T04:45:11Z</time>
		</trkpt>
		<trkpt lat="45.838758" lon="6.724638">
			<ele>1074</ele>
			<time>2017-02-21T04:45:31Z</time>
		</trkpt>
		<trkpt lat="45.838773" lon="6.724188">
			<ele>1079</ele>
			<time>2017-02-21T04:45:51Z</time>
		</trkpt>
		<trkpt lat="45.838892" lon="6.724209">
			<ele>1081</ele>
			<time>2017-02-21T04:46:11Z</time>
		</trkpt>
		<trkpt lat="45.839012" lon="6.724789">
			<ele>1073</ele>
			<time>2017-02-21T04:46:31Z</time>
		</trkpt>
		<trkpt lat="45.839012" lon="6.725132">
			<ele>1063</ele>
			<time>2017-02-21T04:46:51Z</time>
		</trkpt>
		<trkpt lat="45.839191" lon="6.725389">
			<ele>1066</ele>
			<time>2017-02-21T04:47:11Z</time>
		</trkpt>
		<trkpt lat="45.839625" lon="6.72496">
			<ele>1088</ele>
			<time>2017-02-21T04:47:31Z</time>
		</trkpt>
		<trkpt lat="45.840118" lon="6.725089">
			<ele>1084</ele>
			<time>2017-02-21T04:47:51Z</time>
		</trkpt>
		<trkpt lat="45.840776" lon="6.725604">
			<ele>1075</ele>
			<time>2017-02-21T04:48:11Z</time>
		</trkpt>
		<trkpt lat="45.841628" lon="6.72554">
			<ele>1084</ele>
			<time>2017-02-21T04:48:31Z</time>
		</trkpt>
		<trkpt lat="45.843168" lon="6.726183">
			<ele>1054</ele>
			<time>2017-02-21T04:48:51Z</time>
		</trkpt>
		<trkpt lat="45.843467" lon="6.726569">
			<ele>1049</ele>
			<time>2017-02-21T04:49:11Z</time>
		</trkpt>
		<trkpt lat="45.843825" lon="6.726527">
			<ele>1056</ele>
			<time>2017-02-21T04:49:31Z</time>
		</trkpt>
		<trkpt lat="45.844259" lon="6.726977">
			<ele>1041</ele>
			<time>2017-02-21T04:49:51Z</time>
		</trkpt>
		<trkpt lat="45.844289" lon="6.727235">
			<ele>1036</ele>
			<time>2017-02-21T04:50:11Z</time>
		</trkpt>
		<trkpt lat="45.843781" lon="6.727642">
			<ele>1021</ele>
			<time>2017-02-21T04:50:31Z</time>
		</trkpt>
		<trkpt lat="45.843332" lon="6.727707">
			<ele>1019</ele>
			<time>2017-02-21T04:50:51Z</time>
		</trkpt>
		<trkpt lat="45.843272" lon="6.727921">
			<ele>1017</ele>
			<time>2017-02-21T04:51:11Z</time>
		</trkpt>
		<trkpt lat="45.843317" lon="6.728651">
			<ele>1015</ele>
			<time>2017-02-21T04:51:31Z</time>
		</trkpt>
		<trkpt lat="45.843661" lon="6.729144">
			<ele>1015</ele>
			<time>2017-02-21T04:51:51Z</time>
		</trkpt>
		<trkpt lat="45.843781" lon="6.729595">
			<ele>1018</ele>
			<time>2017-02-21T04:52:11Z</time>
		</trkpt>
		<trkpt lat="45.843795" lon="6.73026">
			<ele>1021</ele>
			<time>2017-02-21T04:52:31Z</time>
		</trkpt>
		<trkpt lat="45.84399" lon="6.730496">
			<ele>1021</ele>
			<time>2017-02-21T04:52:51Z</time>
		</trkpt>
		<trkpt lat="45.844289" lon="6.731848">
			<ele>1030</ele>
			<time>2017-02-21T04:53:11Z</time>
		</trkpt>
		<trkpt lat="45.844139" lon="6.732427">
			<ele>1032</ele>
			<time>2017-02-21T04:53:31Z</time>
		</trkpt>
		<trkpt lat="45.844289" lon="6.732878">
			<ele>1041</ele>
			<time>2017-02-21T04:53:51Z</time>
		</trkpt>
		<trkpt lat="45.84526" lon="6.733522">
			<ele>1057</ele>
			<time>2017-02-21T04:54:11Z</time>
		</trkpt>
		<trkpt lat="45.845783" lon="6.733693">
			<ele>1060</ele>
			<time>2017-02-21T04:54:31Z</time>
		</trkpt>
		<trkpt lat="45.845843" lon="6.734144">
			<ele>1068</ele>
			<time>2017-02-21T04:54:51Z</time>
		</trkpt>
		<trkpt lat="45.846157" lon="6.734316">
			<ele>1072</ele>
			<time>2017-02-21T04:55:11Z</time>
		</trkpt>
		<trkpt lat="45.846097" lon="6.73453">
			<ele>1075</ele>
			<time>2017-02-21T04:55:31Z</time>
		</trkpt>
		<trkpt lat="45.845754" lon="6.735002">
			<ele>1100</ele>
			<time>2017-02-21T04:55:51Z</time>
		</trkpt>
		<trkpt lat="45.845739" lon="6.735753">
			<ele>1112</ele>
			<time>2017-02-21T04:56:11Z</time>
		</trkpt>
		<trkpt lat="45.845156" lon="6.735796">
			<ele>1126</ele>
			<time>2017-02-21T04:56:31Z</time>
		</trkpt>
		<trkpt lat="45.84547" lon="6.737062">
			<ele>1140</ele>
			<time>2017-02-21T04:56:51Z</time>
		</trkpt>
		<trkpt lat="45.845664" lon="6.738865">
			<ele>1149</ele>
			<time>2017-02-21T04:57:11Z</time>
		</trkpt>
		<trkpt lat="45.845802" lon="6.739004">
			<ele>1145</ele>
			<time>2017-02-21T04:57:31Z</time>
		</trkpt>
		<trkpt lat="45.845862" lon="6.739219">
			<ele>1140</ele>
			<time>2017-02-21T04:57:51Z</time>
		</trkpt>
	</trkseg>
</trk>

</gpx>
